…
net_approval_frame <- approval_polllist %>% 
  group_by(week) %>% 
    summarize(mean_app=mean(net_approval),
              count_app=n(),
              sd_app=sd(net_approval),
              SE_app=sd_app/sqrt(count_app),
              t_crit = qt(0.975, count_app-1),
              CI_low = mean_app - t_crit*SE_app,
              CI_high= mean_app + t_crit*SE_app,
              delta=CI_high-CI_low, #equals the ribbon width
              sample=sum(samplesize))

net_approval_frame

## # A tibble: 40 x 10
##     week mean_app count_app sd_app SE_app t_crit CI_low CI_high delta  sample
##    <dbl>    <dbl>     <int>  <dbl>  <dbl>  <dbl>  <dbl>   <dbl> <dbl>   <dbl>
##  1     3     18.6        11   8.23   2.48   2.23   13.1    24.2 11.1   43198 
##  2     4     18.5        51   8.94   1.25   2.01   15.9    21.0  5.03 270047 
##  3     5     16.7        54   7.59   1.03   2.01   14.6    18.8  4.15 253006.
##  4     6     16.6        37   8.16   1.34   2.03   13.9    19.3  5.44 244572 
##  5     7     16.3        50   7.34   1.04   2.01   14.3    18.4  4.17 265139 
##  6     8     15.0        50   7.77   1.10   2.01   12.8    17.2  4.42 260341 
##  7     9     13.4        53   7.46   1.02   2.01   11.3    15.4  4.11 263422 
##  8    10     12.9        49   7.08   1.01   2.01   10.9    15.0  4.06     NA 
##  9    11     15.8        43   7.45   1.14   2.02   13.5    18.1  4.58 255424 
## 10    12     14.7        57   9.32   1.23   2.00   12.3    17.2  4.95 278293 
## # ... with 30 more rows
…
