…
For each month and year, the dataframe shows the deviation of temperature from the normal (expected). Further the dataframe is in wide format.

tidyweather <- weather %>%
  select(1:13) %>%
  pivot_longer(cols = 2:13, 
              names_to = "Month", 
              values_to = "delta")
  
tidyweather

## # A tibble: 1,704 x 3
##     Year Month delta
##    <dbl> <chr> <dbl>
##  1  1880 Jan   -0.35
##  2  1880 Feb   -0.51
##  3  1880 Mar   -0.23
##  4  1880 Apr   -0.3 
##  5  1880 May   -0.06
##  6  1880 Jun   -0.16
##  7  1880 Jul   -0.18
##  8  1880 Aug   -0.26
##  9  1880 Sep   -0.23
## 10  1880 Oct   -0.32
## # ... with 1,694 more rows
…
